<?xml version="1.0" encoding="utf-8"?>
<!-- Generator: Adobe Illustrator 19.1.0, SVG Export Plug-In . SVG Version: 6.00 Build 0)  -->
<svg version="1.1" id="Layer_1" xmlns="http://www.w3.org/2000/svg" xmlns:xlink="http://www.w3.org/1999/xlink" x="0px" y="0px"
	 viewBox="-15 12.1 23.8 23.9" style="enable-background:new -15 12.1 23.8 23.9;" xml:space="preserve">
<style type="text/css">
	.st0{fill:none;stroke:#A7D9EB;stroke-width:1.5;}
</style>
<rect x="-1.6" y="25.7" class="st0" width="9.2" height="9.2"/>
<rect x="-1.6" y="13.2" class="st0" width="9.2" height="9.2"/>
<rect x="-14" y="25.7" class="st0" width="9.2" height="9.2"/>
<rect x="-14" y="13.2" class="st0" width="9.2" height="9.2"/>
</svg>
