<?xml version="1.0" encoding="utf-8"?>
<!-- Generator: Adobe Illustrator 19.1.0, SVG Export Plug-In . SVG Version: 6.00 Build 0)  -->
<svg version="1.1" id="Layer_1" xmlns="http://www.w3.org/2000/svg" xmlns:xlink="http://www.w3.org/1999/xlink" x="0px" y="0px"
	 viewBox="-15 12.1 23.8 23.9" style="enable-background:new -15 12.1 23.8 23.9;" xml:space="preserve">
<style type="text/css">
	.st0{fill:none;stroke:#A7D9EB;stroke-width:1.5;}
</style>
<rect x="-13.4" y="13.8" class="st0" width="20.7" height="20.6"/>
<line class="st0" x1="-12.8" y1="14.4" x2="7.2" y2="24.6"/>
<line class="st0" x1="6.7" y1="14.3" x2="-13.3" y2="24.5"/>
<line class="st0" x1="-12.8" y1="24.3" x2="7.2" y2="34.5"/>
<line class="st0" x1="6.7" y1="24.2" x2="-13.3" y2="34.4"/>
</svg>
